{"count":5,"page":1,"page_size":3,"total_pages":2,"periods":[{"id":"2022-3","incidents":[{"id":"54571a2d","title":"network connectivity issues","description":"Due to a hardware problem, there are currently limitations in the network connection.\r\n\r\nWe are already working on a solution\r\n","date":"2022-03-13T14:09:38.000Z","modified":"2022-03-13T17:08:01.000Z","scheduled":null,"severity":"degraded-performance","affectedsystems":["network"],"resolved":true,"content":"<p>Due to a hardware problem, there are currently limitations in the network connection.</p>\n<p>We are already working on a solution</p>\n<div class=\"update-block\">\n          <div class=\"update-block-date\">2022-03-13T16:43:55.000Z</div>\n          <div class=\"update-block-content\">\n            <div class=\"update-block-title\">Update</div>\n            <div class=\"update-block-body\">\n<p>The hardware error has been fixed and the network is stabilizing again.</p>\n</div></div></div>\n<div class=\"update-block\">\n          <div class=\"update-block-date\">2022-03-13T17:08:01.000Z</div>\n          <div class=\"update-block-content\">\n            <div class=\"update-block-title\">Resolved</div>\n            <div class=\"update-block-body\">\n<p>Our on-site technicians were able to repair the faulty hardware and restore proper operation from the network.\nWe apologize for the inconvenience caused.</p>\n</div></div></div>\n"}],"order":1,"count":1},{"id":"2021-11","incidents":[{"id":"61c672ea","title":"network connectivity issues","description":"Due to a technical problem, the network connectivity of individual IP addresses is currently limited.\r\nWe are already working on a solution","date":"2021-11-03T08:24:48.000Z","modified":"2021-11-03T08:48:23.000Z","scheduled":null,"severity":"partial-outage","affectedsystems":["network"],"resolved":true,"content":"<p>Due to a technical problem, the network connectivity of individual IP addresses is currently limited.\nWe are already working on a solution</p>\n<div class=\"update-block\">\n          <div class=\"update-block-date\">2021-11-03T08:48:22.000Z</div>\n          <div class=\"update-block-content\">\n            <div class=\"update-block-title\">Resolved</div>\n            <div class=\"update-block-body\">\n<p>The reason for the network issue was a bug in one of our packet forwarding engines.\nThe malfunction has been repaired and the network is stable again.</p>\n</div></div></div>\n"}],"order":5,"count":1},{"id":"2021-9","incidents":[{"id":"58e5c3cd","title":"radon.onecorp.eu Migration","date":"2021-09-28T16:00:22.905Z","modified":"2021-09-29T10:11:00.000Z","scheduled":"2021-09-28T16:00:00.000Z","duration":240,"severity":"under-maintenance","affectedsystems":["cloud"],"resolved":true,"content":"<p>We are migrating radon.onecorp.eu to another system.\nPlease expect short interruptions between 18:00 and 22:00 (GMT+2).</p>\n<p>We will update this incident once more information becomes available.</p>\n<!--- language code: en -->\n<div class=\"update-block\">\n          <div class=\"update-block-date\">2021-09-28T20:05:00.000Z</div>\n          <div class=\"update-block-content\">\n            <div class=\"update-block-title\">Delayed</div>\n            <div class=\"update-block-body\">\n<p>Migration is taking longer than expected. We currently have no ETA.\nSubscriptions are still being migrated and are unreachable for about 5 minutes each during switchover.</p>\n</div></div></div>\n<div class=\"update-block\">\n          <div class=\"update-block-date\">2021-09-28T22:35:00.000Z</div>\n          <div class=\"update-block-content\">\n            <div class=\"update-block-title\">Migration Paused</div>\n            <div class=\"update-block-body\">\n<p>We will pause migration for now. Subscriptions not yet migrated will be transferred in the morning.</p>\n</div></div></div>\n<div class=\"update-block\">\n          <div class=\"update-block-date\">2021-09-29T07:18:00.000Z</div>\n          <div class=\"update-block-content\">\n            <div class=\"update-block-title\">Migration Continued</div>\n            <div class=\"update-block-body\">\n<p>We will continue to migrate subscriptions. Websites might be unreachable up to 5 minutes.</p>\n</div></div></div>\n<div class=\"update-block\">\n          <div class=\"update-block-date\">2021-09-29T10:11:00.000Z</div>\n          <div class=\"update-block-content\">\n            <div class=\"update-block-title\">Completed</div>\n            <div class=\"update-block-body\">\n<p>Migration is now complete. We apologise for the inconvenience.</p>\n</div></div></div>\n"}],"order":7,"count":1}]}