{"count":7,"page":3,"page_size":3,"total_pages":3,"periods":[{"id":"2021-4","incidents":[{"id":"0915bc9a","title":"Network Infrastructure maintenance","description":"We are upgrading network equipment in Frankfurt","date":"2021-04-07T15:03:48.568Z","modified":"2022-06-10T08:27:17.677Z","scheduled":"2021-04-07T14:00:00.000Z","duration":60,"severity":"under-maintenance","affectedsystems":["network"],"resolved":true,"content":"<p>We are upgrading network equipment in Frankfurt am Main. Expect short network interruptions (&lt; 1min) for servers located in Frankfurt.</p>\n<!--- language code: en -->\n<div class=\"update-block\">\n          <div class=\"update-block-date\">2021-04-07T15:03:48.568Z</div>\n          <div class=\"update-block-content\">\n            <div class=\"update-block-title\">Resolved</div>\n            <div class=\"update-block-body\">\n<p>Maintenance is now complete.</p>\n</div></div></div>\n"}],"order":15,"count":1}]}