{"count":5,"page":2,"page_size":3,"total_pages":2,"periods":[{"id":"2021-6","incidents":[{"id":"87c78a5e","title":"High temperature at site DUS6","description":"Since 13:50 (UTC) there are temperature problems at site DUS6 which leads to emergency shutdown of some servers.\r\nOur technicians and the technicians from the data center are already working with high pressure on a solution.","date":"2021-06-17T15:14:26.000Z","modified":"2021-06-17T21:26:25.000Z","scheduled":null,"severity":"partial-outage","affectedsystems":[],"resolved":true,"content":"<p>Since 13:50 (UTC) there are temperature problems at site DUS6 which leads to emergency shutdown of some servers.\nOur technicians and the technicians from the data center are already working with high pressure on a solution.</p>\n<div class=\"update-block\">\n          <div class=\"update-block-date\">2021-06-17T21:26:21.000Z</div>\n          <div class=\"update-block-content\">\n            <div class=\"update-block-title\">Resolved</div>\n            <div class=\"update-block-body\">\n<p>The reason for the high temperatures was a failure of a climate box.\nThe malfunction has been repaired and the temperatures are returning to normal.</p>\n</div></div></div>\n"}],"order":10,"count":1},{"id":"2021-4","incidents":[{"id":"0915bc9a","title":"Network Infrastructure maintenance","description":"We are upgrading network equipment in Frankfurt","date":"2021-04-07T15:03:48.568Z","modified":"2022-03-13T16:44:42.850Z","scheduled":"2021-04-07T14:00:00.000Z","duration":60,"severity":"under-maintenance","affectedsystems":["network"],"resolved":true,"content":"<p>We are upgrading network equipment in Frankfurt am Main. Expect short network interruptions (&lt; 1min) for servers located in Frankfurt.</p>\n<!--- language code: en -->\n<div class=\"update-block\">\n          <div class=\"update-block-date\">2021-04-07T15:03:48.568Z</div>\n          <div class=\"update-block-content\">\n            <div class=\"update-block-title\">Resolved</div>\n            <div class=\"update-block-body\">\n<p>Maintenance is now complete.</p>\n</div></div></div>\n"}],"order":12,"count":1}]}